#
#  Locale language support:chinese
#

#
# RES_ID: Resource ID 
# MAX_LEN_OF_BYTE_FULL: Maximun length of full name (counted by bytes) 
# MAX_LEN_OF_BYTE_ABBR: Maximun length of abbreviated name (counted by bytes)
# FULL_IN_EN: Full English name
# ABBR_IN_EN: Abbreviated English name
# FULL_IN_LOCALE: Full name in locale language
# ABBR_IN_LOCALE: Abbreviated locale name
#
[LOCALE_LANGUAGE]
tr


[RES_INFO]
#RES_ID	MAX_LEN_OF_BYTE_FULL	MAX_LEN_OF_BYTE_ABBR	FULL_IN_EN				ABBR_IN_EN		FULL_IN_LOCALE		ABBR_IN_LOCALE
1	32			15			SMTemp1 Temperature 1			SMTemp1 Temp1		SMTemp1 Temperature 1			SMTemp1 Temp1	
2	32			15			SMTemp1 Temperature 2			SMTemp1 Temp2		SMTemp1 Temperature 2			SMTemp1 Temp2	
3	32			15			SMTemp1 Temperature 3			SMTemp1 Temp3		SMTemp1 Temperature 3			SMTemp1 Temp3	
4	32			15			SMTemp1 Temperature 4			SMTemp1 Temp4		SMTemp1 Temperature 4			SMTemp1 Temp4	
5	32			15			SMTemp1 Temperature 5			SMTemp1 Temp5		SMTemp1 Temperature 5			SMTemp1 Temp5	
6	32			15			SMTemp1 Temperature 6			SMTemp1 Temp6		SMTemp1 Temperature 6			SMTemp1 Temp6	
7	32			15			SMTemp1 Temperature 7			SMTemp1 Temp7		SMTemp1 Temperature 7			SMTemp1 Temp7	
8	32			15			SMTemp1 Temperature 8			SMTemp1 Temp8		SMTemp1 Temperature 8			SMTemp1 Temp8	
9	32			15			Temperature Probe 1 Status		Tem probe1 stat		Temperature Probe 1 Status		Tem probe1 stat	
10	32			15			Temperature Probe 2 Status		Tem probe2 stat		Temperature Probe 2 Status		Tem probe2 stat	
11	32			15			Temperature Probe 3 Status		Tem probe3 stat		Temperature Probe 3 Status		Tem probe3 stat	
12	32			15			Temperature Probe 4 Status		Tem probe4 stat		Temperature Probe 4 Status		Tem probe4 stat	
13	32			15			Temperature Probe 5 Status		Tem probe5 stat		Temperature Probe 5 Status		Tem probe5 stat	
14	32			15			Temperature Probe 6 Status		Tem probe6 stat		Temperature Probe 6 Status		Tem probe6 stat	
15	32			15			Temperature Probe 7 Status		Tem probe7 stat		Temperature Probe 7 Status		Tem probe7 stat	
16	32			15			Temperature Probe 8 Status		Tem probe8 stat		Temperature Probe 8 Status		Tem probe8 stat	
															
17	32			15			Normal					Normal			Normal					Normal		
18	32			15			Shorted					Shorted			Shorted					Shorted		
19	32			15			Open					Open			Open					Open		
20	32			15			Not installed				Not installed		Not installed				Not installed	
															
21	32			15			Module ID Overlap			ModuleID Overlap	Module ID Overlap			ModuleID Overlap
22	32			15			AD Converter Failure			AD Conv Fail		AD Converter Failure			AD Conv Fail	
23	32			15			SMTemp EEPROM Failure			EEPROM Fail		SMTemp EEPROM Failure			EEPROM Fail	
															
24	32			15			Interrupt State				Interru State		Interrupt State				Interru State	
25	32			15			Existence State				Exist State		Existence State				Exist State	
26	32			15			Communication Interrupt			Comm Interrupt		Communication Interrupt			Comm Interrupt	
															
27	32			15			Temperature Probe 1 Shorted		Probe1 Short		Temperature Probe 1 Shorted		Probe1 Short	
28	32			15			Temperature Probe 2 Shorted		Probe2 Short		Temperature Probe 2 Shorted		Probe2 Short	
29	32			15			Temperature Probe 3 Shorted		Probe3 Short		Temperature Probe 3 Shorted		Probe3 Short	
30	32			15			Temperature Probe 4 Shorted		Probe4 Short		Temperature Probe 4 Shorted		Probe4 Short	
31	32			15			Temperature Probe 5 Shorted		Probe5 Short		Temperature Probe 5 Shorted		Probe5 Short	
32	32			15			Temperature Probe 6 Shorted		Probe6 Short		Temperature Probe 6 Shorted		Probe6 Short	
33	32			15			Temperature Probe 7 Shorted		Probe7 Short		Temperature Probe 7 Shorted		Probe7 Short	
34	32			15			Temperature Probe 8 Shorted		Probe8 Short		Temperature Probe 8 Shorted		Probe8 Short	
															
35	32			15			Temperature Probe 1 Open		Probe1 Open		Temperature Probe 1 Open		Probe1 Open	
36	32			15			Temperature Probe 2 Open		Probe2 Open		Temperature Probe 2 Open		Probe2 Open	
37	32			15			Temperature Probe 3 Open		Probe3 Open		Temperature Probe 3 Open		Probe3 Open	
38	32			15			Temperature Probe 4 Open		Probe4 Open		Temperature Probe 4 Open		Probe4 Open	
39	32			15			Temperature Probe 5 Open		Probe5 Open		Temperature Probe 5 Open		Probe5 Open	
40	32			15			Temperature Probe 6 Open		Probe6 Open		Temperature Probe 6 Open		Probe6 Open	
41	32			15			Temperature Probe 7 Open		Probe7 Open		Temperature Probe 7 Open		Probe7 Open	
42	32			15			Temperature Probe 8 Open		Probe8 Open		Temperature Probe 8 Open		Probe8 Open	
															
43	32			15			SMTemp 1				SMTemp 1		SMTemp 1				SMTemp 1	
44	32			15			Abnormal				Abnormal		Abnormal				Abnormal	
															
45	32			15			Clear					Clear			Clear					Clear		
46	32			15			Clear Probe Alarm			Clr Probe Alm		Clear Probe Alarm			Clr Probe Alm	
															
51	32			15			Temperture1 Assign Equipment		Temp1 Assign Equip	Temperture1 Assign Equipment		Temp1 Assign Equip
54	32			15			Temperture2 Assign Equipment		Temp2 Assign Equip	Temperture2 Assign Equipment		Temp2 Assign Equip
57	32			15			Temperture3 Assign Equipment		Temp3 Assign Equip	Temperture3 Assign Equipment		Temp3 Assign Equip
60	32			15			Temperture4 Assign Equipment		Temp4 Assign Equip	Temperture4 Assign Equipment		Temp4 Assign Equip
63	32			15			Temperture5 Assign Equipment		Temp5 Assign Equip	Temperture5 Assign Equipment		Temp5 Assign Equip
66	32			15			Temperture6 Assign Equipment		Temp6 Assign Equip	Temperture6 Assign Equipment		Temp6 Assign Equip
69	32			15			Temperture7 Assign Equipment		Temp7 Assign Equip	Temperture7 Assign Equipment		Temp7 Assign Equip
72	32			15			Temperture8 Assign Equipment		Temp8 Assign Equip	Temperture8 Assign Equipment		Temp8 Assign Equip
															
150	32			15			None					None			None					None		
151	32			15			Ambient					Ambient			Ambient					Ambient		
152	32			15			Battery					Battery			Battery					Battery		
															