﻿#
#  Locale language support:Portuguese
#

#
# RES_ID: Resource ID 
# MAX_LEN_OF_BYTE_ABBR: Maximun length of abbreviated name (counted by bytes)
# ABBR_IN_EN: Abbreviated English name
# ABBR_IN_LOCALE: Abbreviated locale name
# ITEM_DESCRIPTION: The description of the resource item
#
[LOCALE_LANGUAGE]
pt

#1. Define the number of the self define multi language display items
[SELF_DEFINE_LANGUAGE_ITEM_NUMBER]
58

[SELF_DEFINE_LANGUAGE_ITEM_INFO]
#Sequence ID	#RES_ID		MAX_LEN_OF_BYTE_ABBR	ABBR_IN_EN		ABBR_IN_LOCALE		ITEM_DESCRIPTION
1		1		32			Main Menu		Menu principal			Main Menu
2		2		32			Status			Status		Running Info
3		3		32			Manual			Manual		Maintain
4		4		32			Settings		Configurações		Parameter Set
5		5		32			ECO Mode		ECO Mode		Energy Saving Parameter Set
6		6		32			Quick Settings		Configurações rápidas		Quick Settings Menu
7		7		32			Quick Settings		Configurações rápidas		Quick Settings Menu
8		8		32			Test Menu 1		Menu de teste 1		Menu for self test
9		9		32			Test Menu 2		Menu de teste 2		Menu for self test
10		10		32			Man/Auto Set		Homem / Auto Set		Man/Auto Set in Maintain SubMenu
#
11		11		32			Select User		Selecionar Usuário		Select user in password input screen
12		12		32			Enter Password		Digite a senha		Enter password in password input screen
#
13		13		32			Slave Settings		Configurações do escravo		Slave Parameter Set
#
21		21		32			Active Alarms		Alarmes ativos		Active Alarms
22		22		32			Alarm History		Histórico de Alarmes		Alarm History
23		23		32			No Active Alarm		Sem alarme ativo		No Active Alarm
24		24		32			No Alarm History	Sem histórico de alarmes		No Alarm History
#
31		31		32			Acknowledge Info	Confirmar Informações		Acknowledge Info
32		32		32			ENT Confirm		Confirmação ENT		ENT to run
33		33		32			ESC Cancel		ESC Cancel		ESC Quit
34		34		32			Prompt Info		Informações Prompt		Prompt Info
35		35		32			Password Error		Erro de senha		Password Error!
36		36		32			ESC or ENT Ret		Ret ESC ou ENT		ESC or ENT Ret
37		37		32			No Privilege		Sem privilégio		No Privilege
38		38		32			No Item Info		No Item Info		No Item Info
39		39		32			Switch to Next		Mudar para Avançar		Switch To Next equip
40		40		32			Switch to Prev		Mudar para Prev		Switch To Previous equip
41		41		32			Disabled Set		Conjunto desativado		Disabled Set
42		42		32			Disabled Ctrl		Ctrl desativado		Disabled Ctrl
43		43		32			Conflict Setting	Configuração de Conflito	Conflict setting of signal relationship
44		44		32			Failed to Set		Falha ao definir		Failed to Control or set
45		45		32			HW Protect		HW Protect		Hardware Protect status
46		46		32			Reboot System		Reiniciar sistema		Reboot System
47		47		32			App is Auto		App is Auto		App is Auto configing
48		48		32			Configuring		Configurando		App is Auto configing
49		49		32			Copying File		Copiando arquivo		Copy config file
50		50		32			Please wait...		Por favor, espere...		Please Wait...
51		51		32			Switch to Set		Mudar para Definir		Switch to Set Alarm Level or Grade
52		52		32			DHCP is Open		DHCP está aberto
53		53		32			Cannot set.		Não é possível definir.
54		54		32			Download Entire		Download Inteiro		Download Config File completely
55		55		32			Reboot Validate		Reiniciar Validar		Validate after reboot
#
#
#以下为Barcode信号，其ID不得大于256
61		61		32			Sys Inventory		Sys Inventory		Product info of Devices
62		62		32			Device Name		Device Name		Device Name
63		63		23			Part Number		Part Number		Part Number
64		64		32			Product Ver		Product Ver		HW Version
65		65		32			SW Version		SW Version		SW Version
66		66		32			Serial Number		Serial Number		Serial Number
#
#Language Name and Reboot Validate Prompt for Language Select Screen
80		80		32			Portugesse			Português		Portugesse
81		81		32			Reboot Validate		Reiniciar Validar		Reboot Validate
#
82		82		32			Alm Severity		Alm Severity		Alarm Grade
83		83		32			None			Nenhum			No Alarm
84		84		32			Observation		Observação		Observation alarm
85		85		32			Major			Principal		Major alarm
86		86		32			Critical		Crítica		Critical alarm
#
87		87		32			Alarm Relay		Relé de alarme		Alarm Relay Settings
88		88		32			None			Nenhum			No Relay Output
89		89		32			Relay 1			Relay 1			Relay Output 1 of IB
90		90		32			Relay 2			Relay 2			Relay Output 2 of IB
91		91		32			Relay 3			Relay 3			Relay Output 3 of IB
92		92		32			Relay 4			Relay 4			Relay Output 4 of IB
93		93		32			Relay 5			Relay 5			Relay Output 5 of IB
94		94		32			Relay 6			Relay 6			Relay Output 6 of IB
95		95		32			Relay 7			Relay 7			Relay Output 7 of IB
96		96		32			Relay 8			Relay 8			Relay Output 8 of IB
97		97		32			Relay 9			Relay 9			Relay Output 1 of EIB
98		98		32			Relay 10		Relay 10		Relay Output 2 of EIB
99		99		32			Relay 11		Relay 11		Relay Output 3 of EIB
100		100		32			Relay 12		Relay 12		Relay Output 4 of EIB
101		101		32			Relay 13		Relay 13		Relay Output 5 of EIB
#
102		102		32			Alarm Param		Parâmetro de alarme		Alarm Param
103		103		32			Alarm Voice		Voz de alarmee		Alarm Voice
104		104		32			Block Alarm		Bloquear Alarme		Block Alarm
105		105		32			Clr Alm Hist		Clr Alm Hist		Clear History alarm
106		106		32			Yes			sim			Yes
107		107		32			No			Não			No
#
108		108		32			Alarm Voltage		Tensão de alarme		Alarm Voltage Level of IB
#
#
121		121		32			Sys Settings		Configurações do sistema		System Param
122		122		32			Language		Language		Current language displayed in LCD screen
123		123		32			Time Zone		Fuso horário		Time Zone
124		124		32			Date			Encontro		Set ACU+ Date, according to time zone
125		125		32			Time			Tempo		Set Time, accoring to time zone
126		126		32			Reload Config		Recarregar configuração		Reload Default Configuration
127		127		32			Keypad Voice		Voz do teclado		Keypad Voice
128		128		32			Download Config		Baixar Config		Download config file
129		129		32			Auto Config		Configuração automática		Auto config
#
#
141		141		32			Communication		Comunicação		Communication Parameter
#
142		142		32			DHCP			DHCP		DHCP Function
143		143		32			IP Address		IP Address			IP Address of ACU+
144		144		32			Subnet Mask		Subnet Mask		Subnet Mask of ACU+
145		145		32			Default Gateway		Default Gateway		Default Gateway of ACU+
#
146		146		32			Self Address		Self Address		Self Addr
147		147		32			Port Type		Tipo de porta		Connection Mode
148		148		32			Port Param		Port Param		Port Parameter
149		149		32			Alarm Report 		Alarm Report		Alarm Report 
150		150		32			Dial Times 		Dial Times 		Dialing Attempt Times
151		151		32			Dial Interval		Dial Interval		Dialing Interval
152		152		32			1st Phone Num		1st Phone Num		First Call Back Phone  Num
153		153		32			2nd Phone  Num		2nd Phone  Num		Second Call Back Phone  Num
154		154		32			3rd Phone  Num		3rd Phone  Num		Third Call Back Phone  Num
#
161		161		32			Enabled			Enabled			Enable DHCP
162		162		32			Disabled		Disabled			Disable DHCP
163		163		32			Error			Error			DHCP function error
164		164		32			RS-232			RS-232			YDN23 Connection Mode RS-232
165		165		32			Modem			Modem			YDN23 Connection Mode MODEM
166		166		32			Ethernet		Ethernet		YDN23 Connection Mode Ethernet
167		167		32			5050			5050			Ethernet Port Number
168		168		32			2400,n,8,1		2400,n,8,1		Serial Port Parameter
169		169		32			4800,n,8,1		4800,n,8,1		Serial Port Parameter
170		170		32			9600,n,8,1		9600,n,8,1		Serial Port Parameter
171		171		32			19200,n,8,1		19200,n,8,1		Serial Port Parameter
172		172		32			38400,n,8,1		38400,n,8,1		Serial Port Parameter
#
# The next level of Battery Group
201		201		32			Basic			Basic		Sub Menu Resouce of BattGroup Para Setting
202		202		32			Charge			Charge		Sub Menu Resouce of BattGroup Para Setting
203		203		32			Test			Test		Sub Menu Resouce of BattGroup Para Setting
204		204		32			Temp Comp		Temp Comp		Sub Menu Resouce of BattGroup Para Setting
205		205		32			Capacity		Capacity		Sub Menu Resouce of BattGroup Para Setting
# The next level of Power System
206		206		32			General			General		Sub Menu Resouce of PowerSystem Para Setting
207		207		32			Power Split		Power Split		Sub Menu Resouce of PowerSystem Para Setting
208		208		32			Temp Probe(s)		Temp Probe(s)		Sub Menu Resouce of PowerSystem Para Setting
# ENERGY SAVING
209		209		32			ECO Mode		ECO Mode		Sub Menu Resouce of ENERGY SAVING
#
#以下用于：在默认屏按ESC，显示设备及配置信息
301		301		32			Serial Num		Serial Num		Serial Number
302		302		32			HW Ver			HW Ver		Hardware Version
303		303		32			SW Ver			SW Ver		Software Version
304		304		32			MAC Addr		MAC Addr		MAC Addr
305		305		32			File Sys		File Sys		File System Revision
306		306		32			Device Name		Device Name		Product Model
307		307		32			Config 			Config 			Solution Config File Version
#
#
501		501		32			LCD Size		LCD Size		Set the LCD Height
502		502		32			128x64			128x64			Set the LCD Height to 128 X 64
503		503		32			128x128			128x128			Set the LCD Height to 128 X 128
504		504		32			LCD Rotation		LCD Rotation		Set the LCD Rotation
505		505		32			0 deg			0 deg			Set the LCD Rotation to 0 degree
506		506		32			90 deg			90 deg			Set the LCD Rotation to 90 degree
507		507		32			180 deg			180 deg			Set the LCD Rotation to 180 degree
508		508		32			270 deg			270 deg			Set the LCD Rotation to 270 degree
#
#
601		601		32			All Rect Ctrl		All Rect Ctrl
602		602		32			All Rect Set		All Rect Set
#
621		621		32			Rectifier		Retificadora
622		622		32			Battery			Bateria
623		623		32			LVD			LVD
624		624		32			Rect AC			Rect AC
625		625		32			Converter		Converter
626		626		32			SMIO			SMIO
627		627		32			Diesel			Diesel
628		628		32			Rect Group 2		Rect Group 2
629		629		32			Rect Group 3		Rect Group 3
630		630		32			Rect Group 4		Rect Group 4
631		631		32			All Conv Ctrl		All Conv Ctrl
632		632		32			All Conv Set		All Conv Set
633		633		32			SMDU			SMDU
#
1001		1001		32			Auto/Manual		Auto/Manual
1002		1002		32			ECO Mode Set		ECO Mode Set
1003		1003		32			FLT/EQ Voltage		FLT/EQ Voltage
1004		1004		32			FLT/EQ Change		FLT/EQ Change
1005		1005		32			Temp Comp		Temp Comp
1006		1006		32			Work Mode Set		Conjunto do modo de trabalho
1007		1007		32			Maintenance		Maintenance
1008		1008		32			Energy Saving		Energy Saving
1009		1009		32			Alarm Settings		Alarm Settings
1010		1010		32			Rect Settings		Rect Settings
1011		1011		32			Batt Settings		Batt Settings
1012		1012		32			Batt1 Settings		Batt1 Settings
1013		1013		32			Batt2 Settings		Batt2 Settings
1014		1014		32			LVD Settings		LVD Settings
1015		1015		32			AC Settings		AC Settings
1016		1016		32			Template 1		Template 1
1017		1017		32			Template 2		Template 2
1018		1018		32			Template N		Template N
#
1101		1101		32			Batt1			Batt1
1102		1102		32			Batt2			Batt2
1103		1103		32			Comp			Comp
1104		1104		32			Amb			Amb
1105		1105		32			Remain			Remain
1106		1106		32			RectNum			RectNum

