﻿#
# Locale language support: Portuguese
#

#
# RES_ID: Resource ID
# MAX_LEN_OF_BYTE_FULL: Maximum length of full name (counted by bytes)
# MAX_LEN_OF_BYTE_ABBR: Maximum length of abbreviated name (counted by bytes)
# FULL_IN_EN: Full English name
# ABBR_IN_EN: Abbreviated English name
# FULL_IN_LOCALE: Full locale name
# ABBR_IN_LOCALE: Abbreviated locale name
#

[LOCALE_LANGUAGE]
pt

[RES_INFO]
#RES_ID		MAX_LEN_OF_BYTE_FULL	MAX_LEN_OF_BYTE_ABBR	FULL_IN_EN				ABBR_IN_EN		FULL_IN_LOCALE				ABBR_IN_LOCALE
1		32			15			LVD Group				LVD Group		Grupo LVD				Grupo LVD
2		32			15			Battery LVD				Batt LVD		LVD de Bateria				LVD de Bateria
3		32			15			None					None			Nenhum					Nenhum
4		32			15			LVD1					LVD1			LVD1					LVD1
5		32			15			LVD2					LVD2			LVD2					LVD2
6		32			15			LVD3					LVD3			LVD3					LVD3
7		32			15			LVD Needs AC Fail			LVD NeedACFail		Requer Falha de Red			Com Falha Red
8		32			15			Disable					Disable			Desabilitado				Desabilitado
9		32			15			Enable					Enable			Habilitado				Habilitado
10		32			15			Number of LVDs				Num LVDs		Número de LVDs				Núm LVDs
11		32			15			0					0			0					0
12		32			15			1					1			1					1
13		32			15			2					2			2					2
14		32			15			3					3			3					3
15		32			15			HTD Point				HTD Point		Nivel Desconexão alta Temp		Desc Alta Temp
16		32			15			HTD Reconnect Point			HTD Recon Pnt		Nivel Reconexão alta Temp		Recon Alta Temp
17		32			15			HTD Temperature Sensor			HTD Temp Sens		Sensor Desconex alta Temp		Sens Des Alta T
18		32			15			Ambient Temperature			Ambient Temp		Temp. Ambiente				Temp. Ambiente
19		32			15			Battery Temperature			Battery Temp		Temp. Bateria				Temp. Bateria
20		32			15			Temperature 1				Temp1			Temperatura 1				Temp 1
21		32			15			Temperature 2				Temp2			Temperatura 2				Temp 2
22		32			15			Temperature 3				Temp3			Temperatura 3				Temp 3
23		32			15			Temperature 4				Temp4			Temperatura 4				Temp 4
24		32			15			Temperature 5				Temp5			Temperatura 5				Temp 5
25		32			15			Temperature 6				Temp6			Temperatura 6				Temp 6
26		32			15			Temperature 7				Temp7			Temperatura 7				Temp 7
27		32			15			Existence State				Exist State		Detecção				Detecção
28		32			15			Existent				Existent		Existente				Existente
29		32			15			Non-Existent				Non-Existent		Não existente				Não Existente
31		32			15			LVD1					LVD1			LVD1					LVD1
32		32			15			LVD1 Mode				LVD1 Mode		Modo LVD1				Modo LVD1
33		32			15			LVD1 Voltage				LVD1 Voltage		Tensão LVD1				Tensão LVD1
34		32			15			LVD1 Reconnect Voltage			LVD1 ReconnVolt		Tensão Reconexão LVD1			Reconex LVD1
35		32			15			LVD1 Reconnect Delay			LVD1 ReconDelay		Retardo Reconexão LVD1			Retardo RLVD1
36		32			15			LVD1 Time				LVD1 Time		Tempo LVD1				Tempo LVD1
37		32			15			LVD1 Dependency				LVD1 Dependency		Dependencia LVD1			Depend LVD1
41		32			15			LVD2					LVD2			LVD2					LVD2
42		32			15			LVD2 Mode				LVD2 Mode		Modo LVD2				Modo LVD2
43		32			15			LVD2 Voltage				LVD2 Voltage		Tensão LVD2				Tensão LVD2
44		32			15			LVR2 Reconnect Voltage			LVR2 ReconnVolt		Tensão Reconexão LVD2			Reconex LVD2
45		32			15			LVD2 Reconnect Delay			LVD2 ReconDelay		Retardo Reconexão LVD2			Retardo RLVD2
46		32			15			LVD2 Time				LVD2 Time		Tempo LVD2				Tempo LVD2
47		32			15			LVD2 Dependency				LVD2 Dependency		Dependencia LVD2			Depend LVD2
51		32			15			Disabled				Disabled		Desabilitado				Desabilitado
52		32			15			Enabled					Enabled			Habilitado				Habilitado
53		32			15			Voltage					Voltage			Tensão					Tensão
54		32			15			Time					Time			Tempo					Tempo
55		32			15			None					None			Nenhum					Nenhum
56		32			15			LVD1					LVD1			LVD1					LVD1
57		32			15			LVD2					LVD2			LVD2					LVD2
103		32			15			HTD1 Enable				HTD1 Enable		Habilitar HTD1				Habil. HTD1
104		32			15			HTD2 Enable				HTD2 Enable		Habilitar HTD2				Habil. HTD2
105		32			15			Battery LVD				Batt LVD		LVD Bateria				LVD Bateria
106		32			15			No Battery				No Batt			Sem Bateria				Sem Bateria
107		32			15			LVD1					LVD1			LVD1					LVD1
108		32			15			LVD2					LVD2			LVD2					LVD2
109		32			15			Battery Always On			BattAlwaysOn		Bateria sempre conectada		Sempre com Bat
110		32			15			LVD contator Type			LVD Type		Tipo contator LVD			Tipo Contat LVD
111		32			15			Bistable				Bistable		Biestável				Biestável
112		32			15			Monostable				Mono-stable		Monoestável				Monoestável
113		32			15			Monostable with Sample			Mono with Samp		Monoestável com sinal			Mono com sinal
116		32			15			LVD1 Disconnected			LVD1 Disconnected	LVD1 desconectado			LVD1 Aberto
117		32			15			LVD2 Disconnected			LVD2 Disconnected	LVD2 desconectado			LVD2 Aberto
126		32			15			LVD1 Voltage(24V)			LVD1 Voltage		Tensão LVD1(24V)			Tensão LVD1
127		32			15			LVD1 Reconnect Voltage(24V)		LVD1 ReconnVolt(24V)	Tensão Reconex LVD1			V Reconex LVD1
128		32			15			LVD2 Voltage(24V)			LVD2 Voltage		Tensão LVD2 (24V)			Tensão LVD2
129		32			15			LVD2 Reconnect Voltage(24V)		LVD2 ReconnVolt		Tensão Reconex LVD2 (24V)		V Reconex LVD2
130		32			15			LVD1 Control				LVD1			Control LVD1				LVD1
131		32			15			LVD2 Control				LVD2			Control LVD2				LVD2
132		32			15			LVD1 Reconnect				LVD1 Reconnect		Reconectar LVD1				Recon LVD1
133		32			15			LVD2 Reconnect				LVD2 Reconnect		Reconectar LVD2				Recon LVD2
134		32			15			HTD Point				HTD Point		Nivel Desconexão alta Temp		Desc Alta Temp
135		32			15			HTD Reconnect Point			HTD Recon Point		Nivel Reconexão alta Temp		Recon Alta Temp
136		32			15			HTD Temperature Sensor			HTD Temp Sensor		Sensor Desconex alta Temp		Sens Des Alta T
137		32			15			Ambient					Ambient			Ambiente				Ambiente
138		32			15			Battery					Battery			Bateria					Bateria
139		32			15			LVD Synchronize				LVD Synchronize		Sincronizar LVD				Sincronizar LVD
140		32			15			Relay for LVD3				Relay for LVD3		Relé para LVD3				Relé para LVD3
141		32			15			Relay Output 1				Relay Output 1		Relé de Saída 1			Relé de Saída 1
142		32			15			Relay Output 2				Relay Output 2		Relé de Saída 2			Relé de Saída 2
143		32			15			Relay Output 3				Relay Output 3		Relé de Saída 3			Relé de Saída 3
144		32			15			Relay Output 4				Relay Output 4		Relé de Saída 4			Relé de Saída 4
145		32			15			Relay Output 5				Relay Output 5		Relé de Saída 5			Relé de Saída 5
146		32			15			Relay Output 6				Relay Output 6		Relé de Saída 6			Relé de Saída 6
147		32			15			Relay Output 7				Relay Output 7		Relé de Saída 7			Relé de Saída 7
148		32			15			Relay Output 8				Relay Output 8		Relé de Saída 8			Relé de Saída 8
149		32			15			Relay Output 14				Relay Output 14		Relé de Saída 14			Relé de Saída 14
150		32			15			Relay Output 15				Relay Output 15		Relé de Saída 15			Relé de Saída 15
151		32			15			Relay Output 16				Relay Output 16		Relé de Saída 16			Relé de Saída 16
152		32			15			Relay Output 17				Relay Output 17		Relé de Saída 17			Relé de Saída 17
153		32			15			LVD 3 Enable				LVD 3 Enable		Habilitar LVD3				Habilitar LVD3
154		32			15			LVD Threshold				LVD Threshold		LVD Eletro O limiar			LVD O limiar
