﻿#
# Locale language support: Portuguese
#

#
# RES_ID: Resource ID
# MAX_LEN_OF_BYTE_FULL: Maximum length of full name (counted by bytes)
# MAX_LEN_OF_BYTE_ABBR: Maximum length of abbreviated name (counted by bytes)
# FULL_IN_EN: Full English name
# ABBR_IN_EN: Abbreviated English name
# FULL_IN_LOCALE: Full locale name
# ABBR_IN_LOCALE: Abbreviated locale name
#

[LOCALE_LANGUAGE]
pt

[RES_INFO]
#RES_ID		MAX_LEN_OF_BYTE_FULL	MAX_LEN_OF_BYTE_ABBR	FULL_IN_EN				ABBR_IN_EN		FULL_IN_LOCALE				ABBR_IN_LOCALE
1		32			15			Bus Bar Voltage				Bus Bar Voltage		Tensão Barramento			Tensão Barram.
2		32			15			Load 1 Current				Load 1 Current		Corrente Carga 1			Corr. Carga 1
3		32			15			Load 2 Current				Load 2 Current		Corrente Carga 2			Corr. Carga 2
4		32			15			Load 3 Current				Load 3 Current		Corrente Carga 3			Corr. Carga 3
5		32			15			Load 4 Current				Load 4 Current		Corrente Carga 4			Corr. Carga 4
6		32			15			Load 5 Current				Load 5 Current		Corrente Carga 5			Corr. Carga 5
7		32			15			Load 6 Current				Load 6 Current		Corrente Carga 6			Corr. Carga 6
8		32			15			Load 7 Current				Load 7 Current		Corrente Carga 7			Corr. Carga 7
9		32			15			Load 8 Current				Load 8 Current		Corrente Carga 8			Corr. Carga 8
10		32			15			Load 9 Current				Load 9 Current		Corrente Carga 9			Corr. Carga 9
11		32			15			Load 10 Current				Load 10 Current		Corrente Carga 10			Corr. Carga 10
12		32			15			Load 11 Current				Load 11 Current		Corrente Carga 11			Corr. Carga 11
13		32			15			Load 12 Current				Load 12 Current		Corrente Carga 12			Corr. Carga 12
14		32			15			Load 13 Current				Load 13 Current		Corrente Carga 13			Corr. Carga 13
15		32			15			Load 14 Current				Load 14 Current		Corrente Carga 14			Corr. Carga 14
16		32			15			Load 15 Current				Load 15 Current		Corrente Carga 15			Corr. Carga 15
17		32			15			Load 16 Current				Load 16 Current		Corrente Carga 16			Corr. Carga 16
18		32			15			Load 17 Current				Load 17 Current		Corrente Carga 17			Corr. Carga 17
19		32			15			Load 18 Current				Load 18 Current		Corrente Carga 18			Corr. Carga 18
20		32			15			Load 19 Current				Load 19 Current		Corrente Carga 19			Corr. Carga 19
21		32			15			Load 20 Current				Load 20 Current		Corrente Carga 20			Corr. Carga 20
22		32			15			Power1					Power1			Potência 1				Potência 1
23		32			15			Power2					Power2			Potência 2				Potência 2
24		32			15			Power3					Power3			Potência 3				Potência 3
25		32			15			Power4					Power4			Potência 4				Potência 4
26		32			15			Power5					Power5			Potência 5				Potência 5
27		32			15			Power6					Power6			Potência 6				Potência 6
28		32			15			Power7					Power7			Potência 7				Potência 7
29		32			15			Power8					Power8			Potência 8				Potência 8
30		32			15			Power9					Power9			Potência 9				Potência 9
31		32			15			Power10					Power10			Potência 10				Potência 10
32		32			15			Power11					Power11			Potência 11				Potência 11
33		32			15			Power12					Power12			Potência 12				Potência 12
34		32			15			Power13					Power13			Potência 13				Potência 13
35		32			15			Power14					Power14			Potência 14				Potência 14
36		32			15			Power15					Power15			Potência 15				Potência 15
37		32			15			Power16					Power16			Potência 16				Potência 16
38		32			15			Power17					Power17			Potência 17				Potência 17
39		32			15			Power18					Power18			Potência 18				Potência 18
40		32			15			Power19					Power19			Potência 19				Potência 19
41		32			15			Power20					Power20			Potência 20				Potência 20
42		32			15			Energy Yesterday in Channel 1		CH1EnergyYTD		Energia Ontem no Canal 1		En.Ont.Canal 1
43		32			15			Energy Yesterday in Channel 2		CH2EnergyYTD		Energia Ontem no Canal 2		En.Ont.Canal 2
44		32			15			Energy Yesterday in Channel 3		CH3EnergyYTD		Energia Ontem no Canal 3		En.Ont.Canal 3
45		32			15			Energy Yesterday in Channel 4		CH4EnergyYTD		Energia Ontem no Canal 4		En.Ont.Canal 4
46		32			15			Energy Yesterday in Channel 5		CH5EnergyYTD		Energia Ontem no Canal 5		En.Ont.Canal 5
47		32			15			Energy Yesterday in Channel 6		CH6EnergyYTD		Energia Ontem no Canal 6		En.Ont.Canal 6
48		32			15			Energy Yesterday in Channel 7		CH7EnergyYTD		Energia Ontem no Canal 7		En.Ont.Canal 7
49		32			15			Energy Yesterday in Channel 8		CH8EnergyYTD		Energia Ontem no Canal 8		En.Ont.Canal 8
50		32			15			Energy Yesterday in Channel 9		CH9EnergyYTD		Energia Ontem no Canal 9		En.Ont.Canal 9
51		32			15			Energy Yesterday in Channel 10		CH10EnergyYTD		Energia Ontem no Canal 10		En.Ont.Canal 10
52		32			15			Energy Yesterday in Channel 11		CH11EnergyYTD		Energia Ontem no Canal 11		En.Ont.Canal 11
53		32			15			Energy Yesterday in Channel 12		CH12EnergyYTD		Energia Ontem no Canal 12		En.Ont.Canal 12
54		32			15			Energy Yesterday in Channel 13		CH13EnergyYTD		Energia Ontem no Canal 13		En.Ont.Canal 13
55		32			15			Energy Yesterday in Channel 14		CH14EnergyYTD		Energia Ontem no Canal 14		En.Ont.Canal 14
56		32			15			Energy Yesterday in Channel 15		CH15EnergyYTD		Energia Ontem no Canal 15		En.Ont.Canal 15
57		32			15			Energy Yesterday in Channel 16		CH16EnergyYTD		Energia Ontem no Canal 16		En.Ont.Canal 16
58		32			15			Energy Yesterday in Channel 17		CH17EnergyYTD		Energia Ontem no Canal 17		En.Ont.Canal 17
59		32			15			Energy Yesterday in Channel 18		CH18EnergyYTD		Energia Ontem no Canal 18		En.Ont.Canal 18
60		32			15			Energy Yesterday in Channel 19		CH19EnergyYTD		Energia Ontem no Canal 19		En.Ont.Canal 19
61		32			15			Energy Yesterday in Channel 20		CH20EnergyYTD		Energia Ontem no Canal 20		En.Ont.Canal 20
62		32			15			Total Energy in Channel 1		CH1TotalEnergy		Energia Total no Canal 1		En.Tot.Canal 1
63		32			15			Total Energy in Channel 2		CH2TotalEnergy		Energia Total no Canal 2		En.Tot.Canal 2
64		32			15			Total Energy in Channel 3		CH3TotalEnergy		Energia Total no Canal 3		En.Tot.Canal 3
65		32			15			Total Energy in Channel 4		CH4TotalEnergy		Energia Total em Canal 4		En.Tot.Canal 4
66		32			15			Total Energy in Channel 5		CH5TotalEnergy		Energia Total em Canal 5		En.Tot.Canal 5
67		32			15			Total Energy in Channel 6		CH6TotalEnergy		Energia Total no Canal 6		En.Tot.Canal 6
68		32			15			Total Energy in Channel 7		CH7TotalEnergy		Energia Total em Canal 7		En.Tot.Canal 7
69		32			15			Total Energy in Channel 8		CH8TotalEnergy		Energia Total no Canal 8		En.Tot.Canal 8
70		32			15			Total Energy in Channel 9		CH9TotalEnergy		Energia Total em Canal 9		En.Tot.Canal 9
71		32			15			Total Energy in Channel 10		CH10TotalEnergy		Energia Total no Canal 10		En.Ont.Canal10
72		32			15			Total Energy in nChannel 11		CH11TotalEnergy		Energia Total no Canal 11		En.Tot.Canal11
73		32			15			Total Energy in Channel 12		CH12TotalEnergy		Energia Total no Canal 12		En.Tot.Canal12
74		32			15			Total Energy in Channel 13		CH13TotalEnergy		Energia Total no Canal 13		En.Tot.Canal13
75		32			15			Total Energy in Channel 14		CH14TotalEnergy		Energia Total no Canal 14		En.Tot.Canal14
76		32			15			Total Energy in Channel 15		CH15TotalEnergy		Energia Total no Canal 15		En.Ont.Canal15
77		32			15			Total Energy in Channel 16		CH16TotalEnergy		Energia Total no canal 16		En.Tot.Canal16
78		32			15			Total Energy in Channel 17		CH17TotalEnergy		Energia Total no Canal 17		En.Tot.Canal17
79		32			15			Total Energy in Channel 18		CH18TotalEnergy		Energia Total no Canal 18		En.Tot.Canal18
80		32			15			Total Energy in Channel 19		CH19TotalEnergy		Energia Total no Canal 19		En.Tot.Canal19
81		32			15			Total Energy in Channel 20		CH20TotalEnergy		Energia Total no Canal 20		En.Tot.Canal20
82		32			15			Normal					Normal			Normal					Normal
83		32			15			Low					Low			Baixo					Baixo
84		32			15			High					High			Alto					Alto
85		32			15			Under Voltage				Under Voltage		Subtensão				Subtensão
86		32			15			Over Voltage				Over Voltage		Sobretensão				Sobretensão
87		32			15			Shunt 1 Current Alarm			Shunt 1 Alarm		Alarme Corrente Shunt 1			Al.Corr.Shunt 1
88		32			15			Shunt 2 Current Alarm			Shunt 2 Alarm		Alarme Corrente Shunt 2			Al.Corr.Shunt 2
89		32			15			Shunt 3 Current Alarm			Shunt 3 Alarm		Alarme Corrente Shunt 3			Al.Corr.Shunt 3
90		32			15			BusVolt State				BusVolt State		Estado BusVolt				Estado BusVolt
91		32			15			SMDUH State				SMDUH State		Estado SMDUH				Estado SMDUH
92		32			15			Shunt 2 Over Current			Shunt 2 OverCur		Sobrecorrente Shunt 2			SobrecorShunt 2
93		32			15			Shunt 3 Over Current			Shunt 3 OverCur		Sobrecorrente Shunt 3			SobrecorShunt 3
94		32			15			Shunt 4 Over Current			Shunt 4 OverCur		Sobrecorrente Shunt 4			SobrecorShunt 4
95		32			15			Times of Communication Fail		Times Comm Fail		Tempos de Falha de Comunicação	T Falha Comunic
96		32			15			Existent				Existent		Presente				Presente
97		32			15			Not Existent				Not Existent		Não Presente				Não Presente
98		32			15			Very Low				Very Low		Muito Baixo				Muito Baixo
99		32			15			Very High				Very High		Muito Alto				Muito Alto
100		32			15			Switch					Switch			Chave					Chave
101		32			15			LVD1 Fail				LVD 1 Fail		Falha LVD1				Falha LVD1
102		32			15			LVD2 Fail				LVD 2 Fail		Falha LVD2				Falha LVD2
103		32			15			High Temperature Disconnect 1		HTD 1			Desconexão Alta Temperatura 1		DesconAltaTemp1
104		32			15			High Temperature Disconnect 2		HTD 2			Desconexão Alta Temperatura 2		DDesconAltaTemp2
105		32			15			Battery LVD				Battery LVD		Bateria LVD				Bateria LVD
106		32			15			No Battery				No Battery		Sem Bateria				Sem Bateria
107		32			15			LVD 1					LVD 1			LVD 1					LVD 1
108		32			15			LVD 2					LVD 2			LVD 2					LVD 2
109		32			15			Battery Always On			Batt Always On		Bateria Always On			BateriaAlwaysOn
110		32			15			Barcode					Barcode			Barcode					Barcode
111		32			15			DC Over Voltage				DC Over Volt		Sobretensão CC				Sobretensão CC
112		32			15			DC Under Voltage			DC Under Volt		Subtensão CC				Subtensão CC
113		32			15			Over Current 1				Over Curr 1		Sobrecorrente 1				Sobrecorrente 1
114		32			15			Over Current 2				Over Curr 2		Sobrecorrente 2				Sobrecorrente 2
115		32			15			Over Current 3				Over Curr 3		Sobrecorrente 3				Sobrecorrente 3
116		32			15			Over Current 4				Over Curr 4		Sobrecorrente 4				Sobrecorrente 4
117		32			15			Existence State				Existence State		Estado Presente				Estado Presente
118		32			15			Communication Fail			Comm Fail		Falha de Comunicação			Falha Comunic.
119		32			15			Bus Voltage Status			Bus Volt Status		Estado Tensão Barramento		Est.TensãoBarr.
120		32			15			Comm OK					Comm OK			COM OK					COM OK
121		32			15			All Batteries Comm Fail			AllBattCommFail		Falha COM Todas Baterias		FalhCOMTodasBat
122		32			15			Communication Fail			Comm Fail		Falha de Comunicação			Falh Comunic.
123		32			15			Rated Capacity				Rated Capacity		Capacidade Nominal			Capacid.Nominal
124		32			15			Load 5 Current				Load 5 Current		Corrente Carga 5			Corr. Carga 5
125		32			15			Shunt 1 Voltage				Shunt 1 Voltage		Tensão Shunt 1				Tensão Shunt 1
126		32			15			Shunt 1 Current				Shunt 1 Current		Corrente Shunt 1			Corr. Shunt 1
127		32			15			Shunt 2 Voltage				Shunt 2 Voltage		Tensão Shunt 2				Tensão Shunt 2
128		32			15			Shunt 2 Current				Shunt 2 Current		Corrente Shunt 2			Corr. Shunt 2
129		32			15			Shunt 3 Voltage				Shunt 3 Voltage		Tensão Shunt 3				Tensão Shunt 3
130		32			15			Shunt 3 Current				Shunt 3 Current		Corrente Shunt 3			Corr. Shunt 3
131		32			15			Shunt 4 Voltage				Shunt 4 Voltage		Tensão Shunt 4				Tensão Shunt 4
132		32			15			Shunt 4 Current				Shunt 4 Current		Corrente Shunt 4			Corr. Shunt 4
133		32			15			Shunt 5 Voltage				Shunt 5 Voltage		Tensão Shunt 5				Tensão Shunt 5
134		32			15			Shunt 5 Current				Shunt 5 Current		Corrente Shunt 5			Corr. Shunt 5
135		32			15			Normal					Normal			Normal					Normal
136		32			15			Fail					Fail			Falha					Falha
137		32			15			Hall Calibrate Point 1			HallCalibrate1		Calibração Ponto 1			Calibr. Ponto 1
138		32			15			Hall Calibrate Point 2			HallCalibrate2		Calibração Ponto 2			Calibr. Ponto 2
139		32			15			Day X Energy Clear			DayXEnergyClear		Limpar Dia X Energia			Limpar Dia X En
140		32			15			All Channels				All Channels		Todos Canais				Todos Canais
141		32			15			Channel 1				Channel 1		Canal 1					Canal 1
142		32			15			Channel 2				Channel 2		Canal 2					Canal 2
143		32			15			Channel 3				Channel 3		Canal 3					Canal 3
144		32			15			Channel 4				Channel 4		Canal 4					Canal 4
145		32			15			Channel 5				Channel 5		Canal 5					Canal 5
146		32			15			Channel 6				Channel 6		Canal 6					Canal 6
147		32			15			Channel 7				Channel 7		Canal 7					Canal 7
148		32			15			Channel 8				Channel 8		Canal 8					Canal 8
149		32			15			Channel 9				Channel 9		Canal 9					Canal 9
150		32			15			Channel 10				Channel 10		Canal 10				Canal 10
151		32			15			Channel 11				Channel 11		Canal 11				Canal 11
152		32			15			Channel 12				Channel 12		Canal 12				Canal 12
153		32			15			Channel 13				Channel 13		Canal 13				Canal 13
154		32			15			Channel 14				Channel 14		Canal 14				Canal 14
155		32			15			Channel 15				Channel 15		Canal 15				Canal 15
156		32			15			Channel 16				Channel 16		Canal 16				Canal 16
157		32			15			Channel 17				Channel 17		Canal 17				Canal 17
158		32			15			Channel 18				Channel 18		Canal 18				Canal 18
159		32			15			Channel 19				Channel 19		Canal 19				Canal 19
160		32			15			Channel 20				Channel 20		Canal 20				Canal 20
161		32			15			Hall Calibrate Channel			CalibrateChan		Canal Calibração			Canal Calibr.
162		32			15			Hall Coeff 1				Hall Coeff 1		Coef. Sala 1				Coef. Sala 1
163		32			15			Hall Coeff 2				Hall Coeff 2		Coef. Sala 2				Coef. Sala 2
164		32			15			Hall Coeff 3				Hall Coeff 3		Coef. Sala 3				Coef. Sala 3
165		32			15			Hall Coeff 4				Hall Coeff 4		Coef. Sala 4				Coef. Sala 4
166		32			15			Hall Coeff 5				Hall Coeff 5		Coef. Sala 5				Coef. Sala 5
167		32			15			Hall Coeff 6				Hall Coeff 6		Coef. Sala 6				Coef. Sala 6
168		32			15			Hall Coeff 7				Hall Coeff 7		Coef. Sala 7				Coef. Sala 7
169		32			15			Hall Coeff 8				Hall Coeff 8		Coef. Sala 8				Coef. Sala 8
170		32			15			Hall Coeff 9				Hall Coeff 9		Coef. Sala 9				Coef. Sala 9
171		32			15			Hall Coeff 10				Hall Coeff 10		Coef. Sala 10				Coef. Sala 10
172		32			15			Hall Coeff 11				Hall Coeff 11		Coef. Sala 11				Coef. Sala 11
173		32			15			Hall Coeff 12				Hall Coeff 12		Coef. Sala 12				Coef. Sala 12
174		32			15			Hall Coeff 13				Hall Coeff 13		Coef. Sala 13				Coef. Sala 13
175		32			15			Hall Coeff 14				Hall Coeff 14		Coef. Sala 14				Coef. Sala 14
176		32			15			Hall Coeff 15				Hall Coeff 15		Coef. Sala 15				Coef. Sala 15
177		32			15			Hall Coeff 16				Hall Coeff 16		Coef. Sala 16				Coef. Sala 16
178		32			15			Hall Coeff 17				Hall Coeff 17		Coef. Sala 17				Coef. Sala 17
179		32			15			Hall Coeff 18				Hall Coeff 18		Coef. Sala 18				Coef. Sala 18
180		32			15			Hall Coeff 19				Hall Coeff 19		Coef. Sala 19				Coef. Sala 19
181		32			15			Hall Coeff 20				Hall Coeff 20		Coef. Sala 20				Coef. Sala 20
182		32			15			All Days				All Days		Todos Dias				Todos Dias
183		32			15			SMDUH 1					SMDUH 1			SMDUH 1					SMDUH 1
184		32			15			Reset Energy Channel X			RstEnergyChanX		Reset Canal Energia X			ResetCanal En.X
185		32			15			Load1 Alarm Flag			Load1 Alarm Flag	Load1 Alarm Flag			Load1 Alarm Flag
186		32			15			Load2 Alarm Flag			Load2 Alarm Flag	Load2 Alarm Flag			Load2 Alarm Flag
187		32			15			Load3 Alarm Flag			Load3 Alarm Flag	Load3 Alarm Flag			Load3 Alarm Flag
188		32			15			Load4 Alarm Flag			Load4 Alarm Flag	Load4 Alarm Flag			Load4 Alarm Flag
189		32			15			Load5 Alarm Flag			Load5 Alarm Flag	Load5 Alarm Flag			Load5 Alarm Flag
190		32			15			Load6 Alarm Flag			Load6 Alarm Flag	Load6 Alarm Flag			Load6 Alarm Flag
191		32			15			Load7 Alarm Flag			Load7 Alarm Flag	Load7 Alarm Flag			Load7 Alarm Flag
192		32			15			Load8 Alarm Flag			Load8 Alarm Flag	Load8 Alarm Flag			Load8 Alarm Flag
193		32			15			Load9 Alarm Flag			Load9 Alarm Flag	Load9 Alarm Flag			Load9 Alarm Flag
194		32			15			Load10 Alarm Flag			Load10 Alarm Flag	Load10 Alarm Flag			Load10 Alarm Flag
195		32			15			Load11 Alarm Flag			Load11 Alarm Flag	Load11 Alarm Flag			Load11 Alarm Flag
196		32			15			Load12 Alarm Flag			Load12 Alarm Flag	Load12 Alarm Flag			Load12 Alarm Flag
197		32			15			Load13 Alarm Flag			Load13 Alarm Flag	Load13 Alarm Flag			Load13 Alarm Flag
198		32			15			Load14 Alarm Flag			Load14 Alarm Flag	Load14 Alarm Flag			Load14 Alarm Flag
199		32			15			Load15 Alarm Flag			Load15 Alarm Flag	Load15 Alarm Flag			Load15 Alarm Flag
200		32			15			Load16 Alarm Flag			Load16 Alarm Flag	Load16 Alarm Flag			Load16 Alarm Flag
201		32			15			Load17 Alarm Flag			Load17 Alarm Flag	Load17 Alarm Flag			Load17 Alarm Flag
202		32			15			Load18 Alarm Flag			Load18 Alarm Flag	Load18 Alarm Flag			Load18 Alarm Flag
203		32			15			Load19 Alarm Flag			Load19 Alarm Flag	Load19 Alarm Flag			Load19 Alarm Flag
204		32			15			Load20 Alarm Flag			Load20 Alarm Flag	Load20 Alarm Flag			Load20 Alarm Flag
205		32			15			Current1 High Current			Curr 1 Hi		Current1 High Current			Curr 1 Hi
206		32			15			Current1 Very High Current		Curr 1 Very Hi		Current1 Very High Current		Curr 1 Very Hi
207		32			15			Current2 High Current			Curr 2 Hi		Current2 High Current			Curr 2 Hi
208		32			15			Current2 Very High Current		Curr 2 Very Hi		Current2 Very High Current		Curr 2 Very Hi
209		32			15			Current3 High Current			Curr 3 Hi		Current3 High Current			Curr 3 Hi
210		32			15			Current3 Very High Current		Curr 3 Very Hi		Current3 Very High Current		Curr 3 Very Hi
211		32			15			Current4 High Current			Curr 4 Hi		Current4 High Current			Curr 4 Hi
212		32			15			Current4 Very High Current		Curr 4 Very Hi		Current4 Very High Current		Curr 4 Very Hi
213		32			15			Current5 High Current			Curr 5 Hi		Current5 High Current			Curr 5 Hi
214		32			15			Current5 Very High Current		Curr 5 Very Hi		Current5 Very High Current		Curr 5 Very Hi
215		32			15			Current6 High Current			Curr 6 Hi		Current6 High Current			Curr 6 Hi
216		32			15			Current6 Very High Current		Curr 6 Very Hi		Current6 Very High Current		Curr 6 Very Hi
217		32			15			Current7 High Current			Curr 7 Hi		Current7 High Current			Curr 7 Hi
218		32			15			Current7 Very High Current		Curr 7 Very Hi		Current7 Very High Current		Curr 7 Very Hi
219		32			15			Current8 High Current			Curr 8 Hi		Current8 High Current			Curr 8 Hi
220		32			15			Current8 Very High Current		Curr 8 Very Hi		Current8 Very High Current		Curr 8 Very Hi
221		32			15			Current9 High Current			Curr 9 Hi		Current9 High Current			Curr 9 Hi
222		32			15			Current9 Very High Current		Curr 9 Very Hi		Current9 Very High Current		Curr 9 Very Hi
223		32			15			Current10 High Current			Curr 10 Hi		Current10 High Current			Curr 10 Hi
224		32			15			Current10 Very High Current		Curr 10 Very Hi		Current10 Very High Current		Curr 10 Very Hi
225		32			15			Current11 High Current			Curr 11 Hi		Current11 High Current			Curr 11 Hi
226		32			15			Current11 Very High Current		Curr 11 Very Hi		Current11 Very High Current		Curr 11 Very Hi
227		32			15			Current12 High Current			Curr 12 Hi		Current12 High Current			Curr 12 Hi
228		32			15			Current12 Very High Current		Curr 12 Very Hi		Current12 Very High Current		Curr 12 Very Hi
229		32			15			Current13 High Current			Curr 13 Hi		Current13 High Current			Curr 13 Hi
230		32			15			Current13 Very High Current		Curr 13 Very Hi		Current13 Very High Current		Curr 13 Very Hi
231		32			15			Current14 High Current			Curr 14 Hi		Current14 High Current			Curr 14 Hi
232		32			15			Current14 Very High Current		Curr 14 Very Hi		Current14 Very High Current		Curr 14 Very Hi
233		32			15			Current15 High Current			Curr 15 Hi		Current15 High Current			Curr 15 Hi
234		32			15			Current15 Very High Current		Curr 15 Very Hi		Current15 Very High Current		Curr 15 Very Hi
235		32			15			Current16 High Current			Curr 16 Hi		Current16 High Current			Curr 16 Hi
236		32			15			Current16 Very High Current		Curr 16 Very Hi		Current16 Very High Current		Curr 16 Very Hi
237		32			15			Current17 High Current			Curr 17 Hi		Current17 High Current			Curr 17 Hi
238		32			15			Current17 Very High Current		Curr 17 Very Hi		Current17 Very High Current		Curr 17 Very Hi
239		32			15			Current18 High Current			Curr 18 Hi		Current18 High Current			Curr 18 Hi
240		32			15			Current18 Very High Current		Curr 18 Very Hi		Current18 Very High Current		Curr 18 Very Hi
241		32			15			Current19 High Current			Curr 19 Hi		Current19 High Current			Curr 19 Hi
242		32			15			Current19 Very High Current		Curr 19 Very Hi		Current19 Very High Current		Curr 19 Very Hi
243		32			15			Current20 High Current			Curr 20 Hi		Current20 High Current			Curr 20 Hi
244		32			15			Current20 Very High Current		Curr 20 Very Hi		Current20 Very High Current		Curr 20 Very Hi
