﻿#
# Locale language support: Portuguese
#

#
# RES_ID: Resource ID
# MAX_LEN_OF_BYTE_FULL: Maximum length of full name (counted by bytes)
# MAX_LEN_OF_BYTE_ABBR: Maximum length of abbreviated name (counted by bytes)
# FULL_IN_EN: Full English name
# ABBR_IN_EN: Abbreviated English name
# FULL_IN_LOCALE: Full locale name
# ABBR_IN_LOCALE: Abbreviated locale name
#

[LOCALE_LANGUAGE]
pt

[RES_INFO]
#RES_ID		MAX_LEN_OF_BYTE_FULL	MAX_LEN_OF_BYTE_ABBR	FULL_IN_EN				ABBR_IN_EN		FULL_IN_LOCALE				ABBR_IN_LOCALE
1		32			15			Analogue Input 1			Analogue Input1		Entrada Analog 1			Entrada analog1
2		32			15			Analogue Input 2			Analogue Input2		Entrada Analog 2			Entrada analog2
3		32			15			Analogue Input 3			Analogue Input3		Entrada Analog 3			Entrada analog3
4		32			15			Analogue Input 4			Analogue Input4		Entrada Analog 4			Entrada analog4
5		32			15			Analogue Input 5			Analogue Input5		Entrada Analog 5			Entrada analog5
6		32			15			Frequency Input				Frequency Input		Entrada de Frecuencia			Ent frecuencia
7		32			15			Digital Input 1				Digital Input 1		Entrada Digital 1			Entrada Digit1
8		32			15			Digital Input 2				Digital Input 2		Entrada Digital 2			Entrada Digit2
9		32			15			Digital Input 3				Digital Input 3		Entrada Digital 3			Entrada Digit3
10		32			15			Digital Input 4				Digital Input 4		Entrada Digital 4			Entrada Digit4
11		32			15			Digital Input 5				Digital Input 5		Entrada Digital 5			Entrada Digit5
12		32			15			Digital Input 6				Digital Input 6		Entrada Digital 6			Entrada Digit6
13		32			15			Digital Input 7				Digital Input 7		Entrada Digital 7			Entrada Digit7
14		32			15			Relay 1 Status				Relay1 Status		Estado Relé 1				Estado Relé1
15		32			15			Relay 2 Status				Relay2 Status		Estado Relé 2				Estado Relé2
16		32			15			Relay 3 Status				Relay3 Status		Estado Relé 3				Estado Relé3
17		32			15			Relay 1 On/Off				Relay1 On/Off		Activar Relé 1				Activar Relé1
18		32			15			Relay 2 On/Off				Relay2 On/Off		Activar Relé 2				Activar Relé2
19		32			15			Relay 3 On/Off				Relay3 On/Off		Activar Relé 3				Activar Relé3
23		32			15			High Analogue Input 1 Limit		Hi-AI 1 Limit		Lim Alta Entrada Analog 1		Lim Alta AI1
24		32			15			Low Analogue Input 1 Limit		Low-AI 1 Limit		Lim Baja Entrada Analog 1		Lim Baja AI1
25		32			15			High Analogue Input 2 Limit		Hi-AI 2 Limit		Lim Alta Entrada Analog 2		Lim Alta AI2
26		32			15			Low Analogue Input 2 Limit		Low-AI 2 Limit		Lim Baja Entrada Analog 2		Lim Baja AI2
27		32			15			High Analogue Input 3 Limit		Hi-AI 3 Limit		Lim Alta Entrada Analog 3		Lim Alta AI3
28		32			15			Low Analogue Input 3 Limit		Low-AI 3 Limit		Lim Baja Entrada Analog 3		Lim Baja AI3
29		32			15			High Analogue Input 4 Limit		Hi-AI 4 Limit		Lim Alta Entrada Analog 4		Lim Alta AI4
30		32			15			Low Analogue Input 4 Limit		Low-AI 4 Limit		Lim Baja Entrada Analog 4		Lim Baja AI4
31		32			15			High Analogue Input 5 Limit		Hi-AI 5 Limit		Lim Alta Entrada Analog 5		Lim Alta AI5
32		32			15			Low Analogue Input 5 Limit		Low-AI 5 Limit		Lim Baja Entrada Analog 5		Lim Baja AI5
33		32			15			High Frequency Limit			High Freq Limit		Límite Alta frecuencia			Lim alta frec
34		32			15			Low Frequency Limit			Low Freq Limit		Límite Baja frecuencia			Lim baja frec
35		32			15			High Analogue Input 1 Alarm		Hi-AI 1 Alarm		Alarma Alta entrada Analog 1	Alarma alta AI1
36		32			15			Low Analogue Input 1 Alarm		Low-AI 1 Alarm		Alarma Baja entrada Analog 1	Alarma baja AI1
37		32			15			High Analogue Input 2 Alarm		Hi-AI 2 Alarm		Alarma Alta entrada Analog 2	Alarma alta AI2
38		32			15			Low Analogue Input 2 Alarm		Low-AI 2 Alarm		Alarma Baja entrada Analog 2	Alarma baja AI2
39		32			15			High Analogue Input 3 Alarm		Hi-AI 3 Alarm		Alarma Alta entrada Analog 3	Alarma alta AI3
40		32			15			Low Analogue Input 3 Alarm		Low-AI 3 Alarm		Alarma Baja entrada Analog 3	Alarma baja AI3
41		32			15			High Analogue Input 4 Alarm		Hi-AI 4 Alarm		Alarma Alta entrada Analog 4	Alarma alta AI4
42		32			15			Low Analogue Input 4 Alarm		Low-AI 4 Alarm		Alarma Baja entrada Analog 4	Alarma baja AI4
43		32			15			High Analogue Input 5 Alarm		Hi-AI 5 Alarm		Alarma Alta entrada Analog 5	Alarma alta AI5
44		32			15			Low Analogue Input 5 Alarm		Low-AI 5 Alarm		Alarma Baja entrada Analog 5	Alarma baja AI5
45		32			15			High Frequency Input Alarm		Hi-Freq Alarm		Alarma entrada alta frecuencia		Alarma alt frec
46		32			15			Low Frequency Input Alarm		Low-Freq Alarm		Alarma entrada baja frecuencia		Alarma bja frec
47		32			15			Off					Off			Apagado					Apagado
48		32			15			On					On			Conectado				Conectado
49		32			15			Off					Off			Apagado					Apagado
50		32			15			On					On			Conectado				Conectado
51		32			15			Off					Off			Apagado					Apagado
52		32			15			On					On			Conectado				Conectado
53		32			15			Off					Off			Apagado					Apagado
54		32			15			On					On			Conectado				Conectado
55		32			15			Off					Off			Apagado					Apagado
56		32			15			On					On			Conectado				Conectado
57		32			15			Off					Off			Apagado					Apagado
58		32			15			On					On			Conectado				Conectado
59		32			15			Off					Off			Apagado					Apagado
60		32			15			On					On			Conectado				Conectado
61		32			15			Off					Off			Apagado					Apagado
62		32			15			On					On			Conectado				Conectado
63		32			15			Off					Off			Apagado					Apagado
64		32			15			On					On			Conectado				Conectado
65		32			15			Off					Off			Apagado					Apagado
66		32			15			On					On			Conectado				Conectado
67		32			15			Off					Off			Apagado					Apagado
68		32			15			On					On			Conectado				Conectado
69		32			15			Off					Off			Apagado					Apagado
70		32			15			On					On			Conectado				Conectado
71		32			15			Off					Off			Apagado					Apagado
72		32			15			On					On			Conectado				Conectado
73		32			15			SMIO Generic Unit 7			SMIO Unit 7		SMIO 7					SMIO 7
74		32			15			SMIO Failure				SMIO Fail		Fallo SMIO				Fallo SMIO
75		32			15			SMIO Failure				SMIO Fail		Fallo SMIO				Fallo SMIO
76		32			15			No					No			No					No
77		32			15			Yes					Yes			Sí					Sí
78		32			15			Testing Relay 1				Testing Relay 1		Teste Relé 1				Teste Relé 1
79		32			15			Testing Relay 2				Testing Relay 2		Teste Relé 2				Teste Relé 2
80		32			15			Testing Relay 3				Testing Relay 3		Teste Relé 3				Teste Relé 3
