﻿#
# Locale language support: French
#

#
# RES_ID: Resource ID
# MAX_LEN_OF_BYTE_FULL: Maximun length of full name (counted by bytes)
# MAX_LEN_OF_BYTE_ABBR: Maximun length of abbreviated name (counted by bytes)
# FULL_IN_EN: Full English name
# ABBR_IN_EN: Abbreviated English name
# FULL_IN_LOCALE: Full locale name
# ABBR_IN_LOCALE: Abbreviated locale name
#

[LOCALE_LANGUAGE]
fr

[RES_INFO]
#RES_ID		MAX_LEN_OF_BYTE_FULL	MAX_LEN_OF_BYTE_ABBR	FULL_IN_EN				ABBR_IN_EN		FULL_IN_LOCALE				ABBR_IN_LOCALE
1		32			15			Fuse 1 Voltage				Fuse 1 Volt		Tension Détection Protec 1		V Protec 1
2		32			15			Fuse 2 Voltage				Fuse 2 Volt		Tension Détection Protec 2		V Protec 2
3		32			15			Fuse 3 Voltage				Fuse 3 Volt		Tension Détection Protec 3		V Protec 3
4		32			15			Fuse 4 Voltage				Fuse 4 Volt		Tension Détection Protec 4		V Protec 4
5		32			15			Fuse 1 Alarm		Fuse 1 Alarm		Alarme Protection 1		Al.Protec 1
6		32			15			Fuse 2 Alarm		Fuse 2 Alarm		Alarme Protection 2		Al Protec 2
7		32			15			Fuse 3 Alarm		Fuse 3 Alarm		Alarme Protection 3		Al Protec 3
8		32			15			Fuse 4 Alarm		Fuse 4 Alarm		Alarme Protection 4		Al Protec 4
9		32			15			SMDU1 Battery Fuse Unit	SMDU1 Batt Fuse		SMDU1 Protect.Batterie		CI SMDU1 Bat
10		32			15			On			On			Marche				Marche
11		32			15			Off			Off			Arrêt				Arrêt
12		32			15			Fuse 1 Status				Fuse 1 Status		Etat Protec Bat 1			Etat Protec 1
13		32			15			Fuse 2 Status				Fuse 2 Status		Etat Protec Bat 2			Etat Protec 2
14		32			15			Fuse 3 Status				Fuse 3 Status		Etat Protec Bat 3			Etat Protec 3
15		32			15			Fuse 4 Status				Fuse 4 Status		Etat Protec Bat 4			Etat Protec 4
16		32			15			State					State			Etat					Etat
17		32			15			Normal					Normal			Normal					Normal
18		32			15			Low					Low			Bas					Bas
19		32			15			High					High			Haut					Haut
20		32			15			Very Low		Very Low		Très Bas			Très Bas
21		32			15			Very High		Very High		Très Haut			Très Haut
22		32			15			On					On			On					On
23		32			15			Off					Off			Off					Off
24		32			15			Communication Interrupt			Comm Interrupt		Erreur Communication			Erreur Comm.
25		32			15			Interrupt Times				Interrupt Times		Interrupt Times				Interrupt Times
26		32			15			Fuse 5 Status				Fuse 5 Status		Etat Protec Bat 5			Etat Protec 5
27		32			15			Fuse 6 Status				Fuse 6 Status		Etat Protec Bat 6			Etat Protec 6
28		32			15			Batt Fuse 5 Alarm	Batt Fuse 5 Alarm	Alarme Protection 5		Al Protec 5	
29		32			15			Batt Fuse 6 Alarm	Batt Fuse 6 Alarm	Alarme Protection 5		Al Protec 6
