﻿#
# Locale language support: French
#

#
# RES_ID: Resource ID
# MAX_LEN_OF_BYTE_FULL: Maximun length of full name (counted by bytes)
# MAX_LEN_OF_BYTE_ABBR: Maximun length of abbreviated name (counted by bytes)
# FULL_IN_EN: Full English name
# ABBR_IN_EN: Abbreviated English name
# FULL_IN_LOCALE: Full locale name
# ABBR_IN_LOCALE: Abbreviated locale name
#

[LOCALE_LANGUAGE]
fr

[RES_INFO]
#RES_ID		MAX_LEN_OF_BYTE_FULL	MAX_LEN_OF_BYTE_ABBR	FULL_IN_EN				ABBR_IN_EN		FULL_IN_LOCALE				ABBR_IN_LOCALE
1		32			15			Battery Current				Batt Current		Courant					Courant
2		32			15			Battery Capacity (Ah)			Batt Cap(Ah)		Capacite batterie(Ah)			Capacite bat(Ah)
3		32			15			Current Limit Exceeded			Curr Lmt Exceed		Dépassement limit.Courant		Dépasse I limit.
4		32			15			Battery					Battery			Batterie				Batterie
5		32			15			Over Battery Current			Over Current		Dépassement limit.Courant		Dépasse I limit.
6		32			15			Battery Capacity (%)			Batt Cap(%)		Capacite batterie(%)			Capacite bat(%)
7		32			15			Battery Voltage				Batt Voltage		Tension batterie			Tension bat
8		32			15			Low Capacity				Low Capacity		Capacité basse				Capacité basse
9		32			15			Battery Fuse Failure			Fuse Failure		Défaut Protection Bat			Déf Protect Bat
10		32			15			DC Distribution Seq Num			DC Distri Seq Num	Défaut Protection DC			Déf Protect DC
11		32			15			Battery Overvoltage			Overvolt		Surtension Batterie			Sur U Bat
12		32			15			Battery Undervoltage			Undervolt		Soustension Batterie			Sous U Bat
13		32			15			Battery Overcurrent			Overcurr		Sur Courant Batterie			Sur I Bat
14		32			15			Battery Fuse Failure			Fuse Failure		Défaut Protection Bat			Déf Protect Bat
15		32			15			Battery Overvoltage			Overvolt		Sur tension Batterie			Sur U Bat
16		32			15			Battery Undervoltage			Undervolt		Sous tension Batterie			Sous U Bat
17		32			15			Battery Overcurrent			Overcurr		Sur Courant Batterie			Sur I Bat
18		32			15			LargeDU Battery				LargeDU Battery		Batterie Grand DU			Bat Grand DU
19		32			15			Batt Sensor Coefficient			Batt-Coeffi		Coeff. Compens. Temp. Bat.	Coef. Comp. Temp
20		32			15			Overvoltage Setpoint			Overvolt Point		Seuil Sur Tension			Seuil Sur U
21		32			15			Low Voltage Setpoint			Low Volt Point		Seuil Sous Tension			Seuil Sous U
22		32			15			Battery Not Responding			Not Responding		Pas de Réponse Batterie			Pas de Rép. Bat.
23		32			15			Response				Response		Réponse					Réponse
24		32			15			No Response				No Response		Pas de Réponse				Pas de Réponse
25		32			15			No Response				No Response		Pas de Réponse				Pas de Réponse
26		32			15			Existence State				Existence State		Détection				Détection
27		32			15			Existent				Existent		Présent					Présent
28		32			15			Non-Existent				Non-Existent		Non Présent				Non Présent
29		32			15			Rated Capacity				Rated Capacity		Estimation Capacité			Estim.Capa.
30		32			15			Used by Battery Management		Batt Managed		Gestion Batteries			Gestion Bat
31		32			15			Yes					Yes			Oui					Oui
32		32			15			No					No			Non					Non
97		32			15			Battery Temperature			Battery Temp		Température Batterie			Temp Batterie
98		32			15			Battery Temperature Sensor		BattTempSensor		No Capteur Temperature Batterie		NCapt.Temp.Bat.
99		32			15			None					None			Aucun					Aucun
100		32			15			Temperature 1				Temp 1			Capteur Température 1			Capt.Temp.1
101		32			15			Temperature 2				Temp 2			Capteur Température 2			Capt.Temp.2
102		32			15			Temperature 3				Temp 3			Capteur Température 3			Capt.Temp.3
103		32			15			Temperature 4				Temp 4			Capteur Température 4			Capt.Temp.4
104		32			15			Temperature 5				Temp 5			Capteur Température 5			Capt.Temp.5
105		32			15			Temperature 6				Temp 6			Capteur Température 6			Capt.Temp.6
106		32			15			Temperature 7				Temp 7			Capteur Température 7			Capt.Temp.7
107		32			15			Temperature 8				Temp 8			Capteur Température 8			Capt.Temp.8
108		32			15			Temperature 9				Temp 9			Capteur Température 9			Capt.Temp.9
109		32			15			Temperature 10				Temp 10			Capteur Température 10			Capt.Temp.10
110		32			15			Battery Current Imbalance Alarm		BattCurrImbalan		CourAlm DéséquilibreBatt		CourAlmDéséqBat